{
    "dev": {
        "name": "dev",
        "properties": {
            "production": false,
            "baseUrl": "http://localhost:3000/bhive-art/",
            "tenantName": "neutrinos-training",
            "appName": "modulerdemoapp",
            "namespace": "com.neutrinos-training.modulerdemoapp",
            "isNotificationEnabled": false,
            "googleMapKey": "AIzaSyCSTnVwijjv0CFRA4MEeS-H6PAQc87LEoU",
            "firebaseSenderId": "FIREBASE_SENDER_ID",
            "firebaseAuthKey": "FIREBASE_AUTH_KEY",
            "authDomain": "FIREBASE_AUTH_DOMAIN",
            "databaseURL": "FIREBASE_DATABASE_URL",
            "storageBucket": "FIREBASE_STORAGE_BUCKET",
            "appDataSource": "neutrinos-training-rt",
            "appAuthenticationStrategy": "basicAuth",
            "basicAuthUser": "username",
            "basicAuthPassword": "password",
            "useDefaultExceptionUI": true,
            "pushType": "FCM"
        }
    },
    "prod": {
        "name": "prod",
        "properties": {
            "production": true,
            "baseUrl": "http://localhost:3000/bhive-art/",
            "tenantName": "neutrinos-training",
            "appName": "modulerdemoapp",
            "namespace": "com.neutrinos-training.modulerdemoapp",
            "isNotificationEnabled": false,
            "googleMapKey": "AIzaSyCSTnVwijjv0CFRA4MEeS-H6PAQc87LEoU",
            "firebaseSenderId": "FIREBASE_SENDER_ID",
            "firebaseAuthKey": "FIREBASE_AUTH_KEY",
            "authDomain": "FIREBASE_AUTH_DOMAIN",
            "databaseURL": "FIREBASE_DATABASE_URL",
            "storageBucket": "FIREBASE_STORAGE_BUCKET",
            "appDataSource": "neutrinos-training-rt",
            "appAuthenticationStrategy": "basicAuth",
            "basicAuthUser": "username",
            "basicAuthPassword": "password",
            "useDefaultExceptionUI": true,
            "pushType": "FCM"
        }
    }
}
