{
    "e90ba2b5-48df-1e46-c6fc-f68450acfc36": {
        "paletteKey": "FlexLayoutRow",
        "designerReference": [
            {
                "_key": "componentLabel",
                "_value": "Row",
                "_type": "kv",
                "_attrDef": "p",
                "_useAsLabel": true
            },
            {
                "_key": "style",
                "_value": "",
                "_type": "kv",
                "_attrDef": "p"
            },
            {
                "_key": "class",
                "_value": "",
                "_type": "kv",
                "_attrDef": "p"
            },
            {
                "_key": "fxFlex",
                "_value": "",
                "_type": "kv",
                "_attrDef": "p"
            },
            {
                "_key": "fxLayoutGap",
                "_value": "",
                "_type": "kv",
                "_attrDef": "p"
            },
            {
                "_key": "wrap",
                "_value": "wrap",
                "_type": "a",
                "_attrDef": "p"
            },
            {
                "_key": "layoutAlign",
                "_value": "center",
                "_type": "a",
                "_attrDef": "p"
            },
            {
                "_key": "pLayoutAlign",
                "_value": "center",
                "_type": "a",
                "_attrDef": "p"
            },
            {
                "_key": "[fxShow]",
                "_value": "true",
                "_type": "kv",
                "_attrDef": "p"
            },
            {
                "_key": "[fxHide]",
                "_value": "false",
                "_type": "kv",
                "_attrDef": "p"
            }
        ],
        "3b4e2df3-101b-26b3-5d16-1a794aec0992": {
            "paletteKey": "FlexLayoutCol",
            "parentEditorKey": "e90ba2b5-48df-1e46-c6fc-f68450acfc36",
            "designerReference": [
                {
                    "_key": "componentLabel",
                    "_value": "Column",
                    "_type": "kv",
                    "_attrDef": "p",
                    "_useAsLabel": true
                },
                {
                    "_key": "style",
                    "_value": "",
                    "_type": "kv",
                    "_attrDef": "p"
                },
                {
                    "_key": "class",
                    "_value": "",
                    "_type": "kv",
                    "_attrDef": "p"
                },
                {
                    "_key": "fxFlex",
                    "_value": "",
                    "_type": "kv",
                    "_attrDef": "p"
                },
                {
                    "_key": "fxLayoutGap",
                    "_value": "",
                    "_type": "kv",
                    "_attrDef": "p"
                },
                {
                    "_key": "wrap",
                    "_value": "wrap",
                    "_type": "a",
                    "_attrDef": "p"
                },
                {
                    "_key": "layoutAlign",
                    "_value": "center",
                    "_type": "a",
                    "_attrDef": "p"
                },
                {
                    "_key": "pLayoutAlign",
                    "_value": "center",
                    "_type": "a",
                    "_attrDef": "p"
                },
                {
                    "_key": "[fxShow]",
                    "_value": "true",
                    "_type": "kv",
                    "_attrDef": "p"
                },
                {
                    "_key": "[fxHide]",
                    "_value": "false",
                    "_type": "kv",
                    "_attrDef": "p"
                }
            ],
            "dbd62469-84df-5b34-4587-25ec11fe3ff0": {
                "paletteKey": "FlexLayoutCol",
                "parentEditorKey": "3b4e2df3-101b-26b3-5d16-1a794aec0992",
                "designerReference": [
                    {
                        "_key": "componentLabel",
                        "_value": "Column",
                        "_type": "kv",
                        "_attrDef": "p",
                        "_useAsLabel": true
                    },
                    {
                        "_key": "style",
                        "_value": "",
                        "_type": "kv",
                        "_attrDef": "p"
                    },
                    {
                        "_key": "class",
                        "_value": "",
                        "_type": "kv",
                        "_attrDef": "p"
                    },
                    {
                        "_key": "fxFlex",
                        "_value": "",
                        "_type": "kv",
                        "_attrDef": "p"
                    },
                    {
                        "_key": "fxLayoutGap",
                        "_value": "",
                        "_type": "kv",
                        "_attrDef": "p"
                    },
                    {
                        "_key": "wrap",
                        "_value": "wrap",
                        "_type": "a",
                        "_attrDef": "p"
                    },
                    {
                        "_key": "layoutAlign",
                        "_value": "start",
                        "_type": "a",
                        "_attrDef": "p"
                    },
                    {
                        "_key": "pLayoutAlign",
                        "_value": "stretch",
                        "_type": "a",
                        "_attrDef": "p"
                    },
                    {
                        "_key": "[fxShow]",
                        "_value": "true",
                        "_type": "kv",
                        "_attrDef": "p"
                    },
                    {
                        "_key": "[fxHide]",
                        "_value": "false",
                        "_type": "kv",
                        "_attrDef": "p"
                    },
                    {
                        "_key": "*ngIf",
                        "_value": "showmsg",
                        "_type": "kv",
                        "_attrDef": "c"
                    }
                ],
                "3d8e5525-9732-14e6-a296-8e575aa126fb": {
                    "paletteKey": "Html5",
                    "parentEditorKey": "dbd62469-84df-5b34-4587-25ec11fe3ff0",
                    "isAdvancedComponent": true,
                    "designerReference": [
                        {
                            "_key": "style",
                            "_value": "",
                            "_type": "kv",
                            "_attrDef": "p"
                        },
                        {
                            "_key": "class",
                            "_value": "",
                            "_type": "kv",
                            "_attrDef": "p"
                        },
                        {
                            "_key": "htmlElement",
                            "_value": "p",
                            "_type": "dav",
                            "_attrDef": "p",
                            "_useAsLabel": true
                        },
                        {
                            "_key": "tagType",
                            "_value": "p",
                            "_type": "a",
                            "_attrDef": "p",
                            "_visibility": false
                        },
                        {
                            "_key": "name",
                            "_value": "",
                            "_type": "kv",
                            "_attrDef": "p",
                            "_visibility": false
                        },
                        {
                            "_key": "sandbox",
                            "_value": "",
                            "_type": "kv",
                            "_attrDef": "p",
                            "_visibility": false
                        },
                        {
                            "_key": "src",
                            "_value": "",
                            "_type": "kv",
                            "_attrDef": "p",
                            "_visibility": false
                        },
                        {
                            "_key": "srcdoc",
                            "_value": "",
                            "_type": "kv",
                            "_attrDef": "p",
                            "_visibility": false
                        },
                        {
                            "_key": "width",
                            "_value": "",
                            "_type": "kv",
                            "_attrDef": "p",
                            "_visibility": false
                        },
                        {
                            "_key": "[autoplay]",
                            "_value": "",
                            "_type": "kv",
                            "_attrDef": "p",
                            "_visibility": false
                        },
                        {
                            "_key": "[loop]",
                            "_value": "",
                            "_type": "kv",
                            "_attrDef": "p",
                            "_visibility": false
                        },
                        {
                            "_key": "data",
                            "_value": "",
                            "_type": "kv",
                            "_attrDef": "p",
                            "_visibility": false
                        },
                        {
                            "_key": "audioSource",
                            "_value": [],
                            "_type": "a",
                            "_attrDef": "p",
                            "_visibility": false
                        },
                        {
                            "_key": "videoSource",
                            "_value": [],
                            "_type": "a",
                            "_attrDef": "p",
                            "_visibility": false
                        },
                        {
                            "_key": "audioDatasource",
                            "_value": "",
                            "_type": "a",
                            "_attrDef": "p",
                            "_visibility": false
                        },
                        {
                            "_key": "audioSrc",
                            "_value": "",
                            "_type": "a",
                            "_attrDef": "p",
                            "_visibility": false
                        },
                        {
                            "_key": "audioType",
                            "_value": "",
                            "_type": "a",
                            "_attrDef": "p",
                            "_visibility": false
                        },
                        {
                            "_key": "videoDatasource",
                            "_value": "",
                            "_type": "a",
                            "_attrDef": "p",
                            "_visibility": false
                        },
                        {
                            "_key": "videoSrc",
                            "_value": "",
                            "_type": "a",
                            "_attrDef": "p",
                            "_visibility": false
                        },
                        {
                            "_key": "videoType",
                            "_value": "",
                            "_type": "a",
                            "_attrDef": "p",
                            "_visibility": false
                        },
                        {
                            "_key": "(audioplay)",
                            "_value": "",
                            "_type": "a",
                            "_attrDef": "p",
                            "_visibility": false
                        },
                        {
                            "_key": "(videoplay)",
                            "_value": "",
                            "_type": "a",
                            "_attrDef": "p",
                            "_visibility": false
                        },
                        {
                            "_key": "(audiopause)",
                            "_value": "",
                            "_type": "kv",
                            "_attrDef": "p",
                            "_visibility": false
                        },
                        {
                            "_key": "(videopause)",
                            "_value": "",
                            "_type": "kv",
                            "_attrDef": "p",
                            "_visibility": false
                        },
                        {
                            "_key": "(audioended)",
                            "_value": "",
                            "_type": "kv",
                            "_attrDef": "p",
                            "_visibility": false
                        },
                        {
                            "_key": "(videoended)",
                            "_value": "",
                            "_type": "kv",
                            "_attrDef": "p",
                            "_visibility": false
                        },
                        {
                            "_key": "*ngIf",
                            "_value": "showmsg",
                            "_type": "kv",
                            "_attrDef": "c"
                        }
                    ],
                    "531de7de-02f3-e5f2-1063-4d433fc62e99": {
                        "paletteKey": "html-editor",
                        "parentEditorKey": "3d8e5525-9732-14e6-a296-8e575aa126fb",
                        "isAdvancedChildComponent": true,
                        "designerReference": [
                            {
                                "_key": "style",
                                "_value": "",
                                "_type": "kv",
                                "_attrDef": "p"
                            },
                            {
                                "_key": "class",
                                "_value": "",
                                "_type": "kv",
                                "_attrDef": "p"
                            },
                            {
                                "_key": "html",
                                "_value": "<p style=\"color:green\">posted data successfully</p>",
                                "_type": "a",
                                "_attrDef": "p"
                            }
                        ]
                    }
                }
            },
            "492981ec-9830-cf93-281a-0130c5f83cc3": {
                "paletteKey": "ad-card",
                "parentEditorKey": "3b4e2df3-101b-26b3-5d16-1a794aec0992",
                "isAdvancedComponent": true,
                "designerReference": [
                    {
                        "_key": "componentLabel",
                        "_value": "Card",
                        "_type": "kv",
                        "_attrDef": "p",
                        "_useAsLabel": true
                    },
                    {
                        "_key": "style",
                        "_value": "margin-top:20px",
                        "_type": "kv",
                        "_attrDef": "p"
                    },
                    {
                        "_key": "class",
                        "_value": "",
                        "_type": "kv",
                        "_attrDef": "p"
                    },
                    {
                        "_key": "tabindex",
                        "_value": "",
                        "_type": "kv",
                        "_attrDef": "p"
                    }
                ],
                "593e1b96-652e-ff8c-a1b7-c31b600f3467": {
                    "paletteKey": "ng-card-content",
                    "parentEditorKey": "492981ec-9830-cf93-281a-0130c5f83cc3",
                    "isAdvancedChildComponent": true,
                    "designerReference": [
                        {
                            "_key": "style",
                            "_value": "margin-top:20px",
                            "_type": "kv",
                            "_attrDef": "p"
                        },
                        {
                            "_key": "class",
                            "_value": "",
                            "_type": "kv",
                            "_attrDef": "p"
                        },
                        {
                            "_key": "align",
                            "_value": "center",
                            "_type": "kv",
                            "_attrDef": "p"
                        }
                    ],
                    "1d0e96c1-3817-caf6-9902-cea789a86243": {
                        "paletteKey": "FlexLayoutCol",
                        "parentEditorKey": "593e1b96-652e-ff8c-a1b7-c31b600f3467",
                        "designerReference": [
                            {
                                "_key": "componentLabel",
                                "_value": "Column",
                                "_type": "kv",
                                "_attrDef": "p",
                                "_useAsLabel": true
                            },
                            {
                                "_key": "style",
                                "_value": "",
                                "_type": "kv",
                                "_attrDef": "p"
                            },
                            {
                                "_key": "class",
                                "_value": "",
                                "_type": "kv",
                                "_attrDef": "p"
                            },
                            {
                                "_key": "fxFlex",
                                "_value": "",
                                "_type": "kv",
                                "_attrDef": "p"
                            },
                            {
                                "_key": "fxLayoutGap",
                                "_value": "",
                                "_type": "kv",
                                "_attrDef": "p"
                            },
                            {
                                "_key": "wrap",
                                "_value": "wrap",
                                "_type": "a",
                                "_attrDef": "p"
                            },
                            {
                                "_key": "layoutAlign",
                                "_value": "start",
                                "_type": "a",
                                "_attrDef": "p"
                            },
                            {
                                "_key": "pLayoutAlign",
                                "_value": "stretch",
                                "_type": "a",
                                "_attrDef": "p"
                            },
                            {
                                "_key": "[fxShow]",
                                "_value": "true",
                                "_type": "kv",
                                "_attrDef": "p"
                            },
                            {
                                "_key": "[fxHide]",
                                "_value": "false",
                                "_type": "kv",
                                "_attrDef": "p"
                            }
                        ],
                        "fb248c80-d891-98ef-b4bd-36e61e079083": {
                            "paletteKey": "NG-Input",
                            "parentEditorKey": "1d0e96c1-3817-caf6-9902-cea789a86243",
                            "isAdvancedComponent": true,
                            "designerReference": [
                                {
                                    "_key": "style",
                                    "_value": "",
                                    "_type": "kv",
                                    "_attrDef": "p"
                                },
                                {
                                    "_key": "class",
                                    "_value": "",
                                    "_type": "kv",
                                    "_attrDef": "p"
                                },
                                {
                                    "_key": "placeholder",
                                    "_value": "username",
                                    "_type": "kv",
                                    "_attrDef": "p",
                                    "_useAsLabel": true
                                },
                                {
                                    "_key": "value",
                                    "_value": "",
                                    "_type": "kv",
                                    "_attrDef": "p"
                                },
                                {
                                    "_key": "[appearance]",
                                    "_value": "'legacy'",
                                    "_type": "a",
                                    "_attrDef": "p"
                                },
                                {
                                    "_key": "required",
                                    "_value": "required",
                                    "_type": "a",
                                    "_attrDef": "p"
                                },
                                {
                                    "_key": "[(ngModel)]",
                                    "_value": "username",
                                    "_type": "kv",
                                    "_attrDef": "p"
                                },
                                {
                                    "_key": "color",
                                    "_value": "",
                                    "_type": "kv",
                                    "_attrDef": "p"
                                },
                                {
                                    "_key": "name",
                                    "_value": "username",
                                    "_type": "kv",
                                    "_attrDef": "p"
                                },
                                {
                                    "_key": "type",
                                    "_value": "",
                                    "_type": "kv",
                                    "_attrDef": "p"
                                },
                                {
                                    "_key": "[formControl]",
                                    "_value": "",
                                    "_type": "kv",
                                    "_attrDef": "p"
                                },
                                {
                                    "_key": "readonly",
                                    "_value": "",
                                    "_type": "kv",
                                    "_attrDef": "p"
                                },
                                {
                                    "_key": "[disabled]",
                                    "_value": "",
                                    "_type": "kv",
                                    "_attrDef": "p"
                                },
                                {
                                    "_key": "id",
                                    "_value": "",
                                    "_type": "kv",
                                    "_attrDef": "p"
                                },
                                {
                                    "_key": "[floatLabel]",
                                    "_value": "'auto'",
                                    "_type": "kv",
                                    "_attrDef": "p"
                                },
                                {
                                    "_key": "matError",
                                    "_value": [],
                                    "_type": "a",
                                    "_attrDef": "p",
                                    "_visibility": true
                                },
                                {
                                    "_key": "inputHint",
                                    "_value": [],
                                    "_type": "a",
                                    "_attrDef": "p",
                                    "_visibility": true
                                },
                                {
                                    "_key": "Label",
                                    "_value": "",
                                    "_type": "a",
                                    "_attrDef": "p",
                                    "_visibility": true
                                },
                                {
                                    "_key": "Suffix Icon",
                                    "_value": "",
                                    "_type": "a",
                                    "_attrDef": "p",
                                    "_visibility": true
                                },
                                {
                                    "_key": "(suffixIconClick)",
                                    "_value": "",
                                    "_type": "a",
                                    "_attrDef": "p",
                                    "_visibility": true
                                },
                                {
                                    "_key": "Prefix Icon",
                                    "_value": "",
                                    "_type": "a",
                                    "_attrDef": "p",
                                    "_visibility": true
                                },
                                {
                                    "_key": "(prefixIconClick)",
                                    "_value": "",
                                    "_type": "a",
                                    "_attrDef": "p",
                                    "_visibility": true
                                },
                                {
                                    "_key": "Prefix",
                                    "_value": "",
                                    "_type": "a",
                                    "_attrDef": "p",
                                    "_visibility": true
                                },
                                {
                                    "_key": "Suffix",
                                    "_value": "",
                                    "_type": "a",
                                    "_attrDef": "p",
                                    "_visibility": true
                                }
                            ]
                        },
                        "ce061fa6-b45e-95a2-6e76-d1b7850b6435": {
                            "paletteKey": "NG-Input",
                            "parentEditorKey": "1d0e96c1-3817-caf6-9902-cea789a86243",
                            "isAdvancedComponent": true,
                            "designerReference": [
                                {
                                    "_key": "style",
                                    "_value": "",
                                    "_type": "kv",
                                    "_attrDef": "p"
                                },
                                {
                                    "_key": "class",
                                    "_value": "",
                                    "_type": "kv",
                                    "_attrDef": "p"
                                },
                                {
                                    "_key": "placeholder",
                                    "_value": "lastname",
                                    "_type": "kv",
                                    "_attrDef": "p",
                                    "_useAsLabel": true
                                },
                                {
                                    "_key": "value",
                                    "_value": "",
                                    "_type": "kv",
                                    "_attrDef": "p"
                                },
                                {
                                    "_key": "[appearance]",
                                    "_value": "'legacy'",
                                    "_type": "a",
                                    "_attrDef": "p"
                                },
                                {
                                    "_key": "required",
                                    "_value": "required",
                                    "_type": "a",
                                    "_attrDef": "p"
                                },
                                {
                                    "_key": "[(ngModel)]",
                                    "_value": "lastname",
                                    "_type": "kv",
                                    "_attrDef": "p"
                                },
                                {
                                    "_key": "color",
                                    "_value": "",
                                    "_type": "kv",
                                    "_attrDef": "p"
                                },
                                {
                                    "_key": "name",
                                    "_value": "lastname",
                                    "_type": "kv",
                                    "_attrDef": "p"
                                },
                                {
                                    "_key": "type",
                                    "_value": "",
                                    "_type": "kv",
                                    "_attrDef": "p"
                                },
                                {
                                    "_key": "[formControl]",
                                    "_value": "",
                                    "_type": "kv",
                                    "_attrDef": "p"
                                },
                                {
                                    "_key": "readonly",
                                    "_value": "",
                                    "_type": "kv",
                                    "_attrDef": "p"
                                },
                                {
                                    "_key": "[disabled]",
                                    "_value": "",
                                    "_type": "kv",
                                    "_attrDef": "p"
                                },
                                {
                                    "_key": "id",
                                    "_value": "",
                                    "_type": "kv",
                                    "_attrDef": "p"
                                },
                                {
                                    "_key": "[floatLabel]",
                                    "_value": "'auto'",
                                    "_type": "kv",
                                    "_attrDef": "p"
                                },
                                {
                                    "_key": "matError",
                                    "_value": [],
                                    "_type": "a",
                                    "_attrDef": "p",
                                    "_visibility": true
                                },
                                {
                                    "_key": "inputHint",
                                    "_value": [],
                                    "_type": "a",
                                    "_attrDef": "p",
                                    "_visibility": true
                                },
                                {
                                    "_key": "Label",
                                    "_value": "",
                                    "_type": "a",
                                    "_attrDef": "p",
                                    "_visibility": true
                                },
                                {
                                    "_key": "Suffix Icon",
                                    "_value": "",
                                    "_type": "a",
                                    "_attrDef": "p",
                                    "_visibility": true
                                },
                                {
                                    "_key": "(suffixIconClick)",
                                    "_value": "",
                                    "_type": "a",
                                    "_attrDef": "p",
                                    "_visibility": true
                                },
                                {
                                    "_key": "Prefix Icon",
                                    "_value": "",
                                    "_type": "a",
                                    "_attrDef": "p",
                                    "_visibility": true
                                },
                                {
                                    "_key": "(prefixIconClick)",
                                    "_value": "",
                                    "_type": "a",
                                    "_attrDef": "p",
                                    "_visibility": true
                                },
                                {
                                    "_key": "Prefix",
                                    "_value": "",
                                    "_type": "a",
                                    "_attrDef": "p",
                                    "_visibility": true
                                },
                                {
                                    "_key": "Suffix",
                                    "_value": "",
                                    "_type": "a",
                                    "_attrDef": "p",
                                    "_visibility": true
                                }
                            ]
                        },
                        "161dffa7-0918-41da-b756-c6dc1722a705": {
                            "paletteKey": "NG-button",
                            "parentEditorKey": "1d0e96c1-3817-caf6-9902-cea789a86243",
                            "designerReference": [
                                {
                                    "_key": "style",
                                    "_value": "",
                                    "_type": "kv",
                                    "_attrDef": "p"
                                },
                                {
                                    "_key": "class",
                                    "_value": "",
                                    "_type": "kv",
                                    "_attrDef": "p"
                                },
                                {
                                    "_key": "buttonname",
                                    "_value": "Button",
                                    "_type": "a",
                                    "_attrDef": "p",
                                    "_useAsLabel": true
                                },
                                {
                                    "_key": "color",
                                    "_value": "",
                                    "_type": "kv",
                                    "_attrDef": "p"
                                },
                                {
                                    "_key": "(click)",
                                    "_value": "submit()",
                                    "_type": "kv",
                                    "_attrDef": "p"
                                },
                                {
                                    "_key": "[disabled]",
                                    "_value": "",
                                    "_type": "kv",
                                    "_attrDef": "p"
                                },
                                {
                                    "_key": "[disableRipple]",
                                    "_value": "",
                                    "_type": "kv",
                                    "_attrDef": "p"
                                },
                                {
                                    "_key": "type",
                                    "_value": "",
                                    "_type": "kv",
                                    "_attrDef": "p"
                                },
                                {
                                    "_key": "routerLink",
                                    "_value": "",
                                    "_type": "kv",
                                    "_attrDef": "p"
                                }
                            ]
                        }
                    }
                }
            },
            "f11e1990-2157-9872-a557-349187d815a4": {
                "paletteKey": "FlexLayoutCol",
                "parentEditorKey": "3b4e2df3-101b-26b3-5d16-1a794aec0992",
                "designerReference": [
                    {
                        "_key": "componentLabel",
                        "_value": "Column",
                        "_type": "kv",
                        "_attrDef": "p",
                        "_useAsLabel": true
                    },
                    {
                        "_key": "style",
                        "_value": "margin-top:50px",
                        "_type": "kv",
                        "_attrDef": "p"
                    },
                    {
                        "_key": "class",
                        "_value": "",
                        "_type": "kv",
                        "_attrDef": "p"
                    },
                    {
                        "_key": "fxFlex",
                        "_value": "",
                        "_type": "kv",
                        "_attrDef": "p"
                    },
                    {
                        "_key": "fxLayoutGap",
                        "_value": "",
                        "_type": "kv",
                        "_attrDef": "p"
                    },
                    {
                        "_key": "wrap",
                        "_value": "wrap",
                        "_type": "a",
                        "_attrDef": "p"
                    },
                    {
                        "_key": "layoutAlign",
                        "_value": "center",
                        "_type": "a",
                        "_attrDef": "p"
                    },
                    {
                        "_key": "pLayoutAlign",
                        "_value": "center",
                        "_type": "a",
                        "_attrDef": "p"
                    },
                    {
                        "_key": "[fxShow]",
                        "_value": "true",
                        "_type": "kv",
                        "_attrDef": "p"
                    },
                    {
                        "_key": "[fxHide]",
                        "_value": "false",
                        "_type": "kv",
                        "_attrDef": "p"
                    }
                ],
                "10e6a846-e7e4-d600-5f6b-1072a2097da0": {
                    "paletteKey": "ng-table",
                    "parentEditorKey": "f11e1990-2157-9872-a557-349187d815a4",
                    "isAdvancedComponent": true,
                    "designerReference": [
                        {
                            "_key": "componentLabel",
                            "_value": "users",
                            "_type": "kv",
                            "_attrDef": "p",
                            "_useAsLabel": true
                        },
                        {
                            "_key": "style",
                            "_value": "margint-top:2rem;width:500px;padding:5px;border:1px solid #ccc;border-collapse: collapse;",
                            "_type": "kv",
                            "_attrDef": "p"
                        },
                        {
                            "_key": "class",
                            "_value": "",
                            "_type": "kv",
                            "_attrDef": "p"
                        },
                        {
                            "_key": "[dataSource]",
                            "_value": "users",
                            "_type": "kv",
                            "_attrDef": "p"
                        },
                        {
                            "_key": "rowclick",
                            "_value": "",
                            "_type": "a",
                            "_attrDef": "p"
                        },
                        {
                            "_key": "header",
                            "_value": true,
                            "_type": "a",
                            "_attrDef": "p",
                            "_visibility": true
                        }
                    ],
                    "8d115955-3c44-0f01-2088-a1332a5d0571": {
                        "paletteKey": "ng-table-column",
                        "parentEditorKey": "10e6a846-e7e4-d600-5f6b-1072a2097da0",
                        "isAdvancedChildComponent": true,
                        "designerReference": [
                            {
                                "_key": "style",
                                "_value": "",
                                "_type": "kv",
                                "_attrDef": "p"
                            },
                            {
                                "_key": "class",
                                "_value": "",
                                "_type": "kv",
                                "_attrDef": "p"
                            },
                            {
                                "_key": "Header Label",
                                "_value": "name",
                                "_type": "a",
                                "_attrDef": "p"
                            },
                            {
                                "_key": "matSortHeaderColumn",
                                "_value": "",
                                "_type": "a",
                                "_attrDef": "p"
                            },
                            {
                                "_key": "Mapping",
                                "_value": "{{table.username}}",
                                "_type": "ma",
                                "_attrDef": "p",
                                "_useAsLabel": true
                            },
                            {
                                "_key": "columnName",
                                "_value": "",
                                "_type": "dav",
                                "_attrDef": "p",
                                "_visibility": false
                            },
                            {
                                "_key": "headerclass",
                                "_value": "",
                                "_type": "dav",
                                "_attrDef": "p"
                            },
                            {
                                "_key": "columnclass",
                                "_value": "",
                                "_type": "dav",
                                "_attrDef": "p"
                            }
                        ]
                    },
                    "35346c37-56c8-286d-5b43-6502eb29a5a0": {
                        "paletteKey": "ng-table-column",
                        "parentEditorKey": "10e6a846-e7e4-d600-5f6b-1072a2097da0",
                        "isAdvancedChildComponent": true,
                        "designerReference": [
                            {
                                "_key": "style",
                                "_value": "",
                                "_type": "kv",
                                "_attrDef": "p"
                            },
                            {
                                "_key": "class",
                                "_value": "",
                                "_type": "kv",
                                "_attrDef": "p"
                            },
                            {
                                "_key": "Header Label",
                                "_value": "lastname",
                                "_type": "a",
                                "_attrDef": "p"
                            },
                            {
                                "_key": "matSortHeaderColumn",
                                "_value": "",
                                "_type": "a",
                                "_attrDef": "p"
                            },
                            {
                                "_key": "Mapping",
                                "_value": "{{table.lastname}}",
                                "_type": "ma",
                                "_attrDef": "p",
                                "_useAsLabel": true
                            },
                            {
                                "_key": "columnName",
                                "_value": "",
                                "_type": "dav",
                                "_attrDef": "p",
                                "_visibility": false
                            },
                            {
                                "_key": "headerclass",
                                "_value": "",
                                "_type": "dav",
                                "_attrDef": "p"
                            },
                            {
                                "_key": "columnclass",
                                "_value": "",
                                "_type": "dav",
                                "_attrDef": "p"
                            }
                        ]
                    }
                }
            }
        }
    }
}
